name,binBaseId,retentionTime,retentionIndex,spectrum
C08,14391,8.412,262320,82:816.0 83:2626.0 84:2773.0 85:683.0 86:214.0 87:34868.0 88:3753.0 89:449.0 90:161.0 91:171.0 92:146.0 93:197.0 94:139.0 95:251.0 96:181.0 97:1186.0 98:1204.0 99:241.0 100:174.0 101:4901.0 102:501.0 103:53.0 105:26.0 106:23.0 107:114.0 108:99.0 109:283.0 110:52.0 111:102.0 112:76.0 113:66.0 114:58.0 115:4854.0 116:422.0 117:16.0 118:28.0 119:33.0 120:46.0 121:27.0 122:32.0 123:32.0 124:60.0 125:167.0 126:105.0 127:4157.0 128:461.0 129:1723.0 130:165.0 131:1.0 132:24.0 133:33.0 134:1.0 135:15.0 136:16.0 137:59.0 138:26.0 139:44.0 140:30.0 141:41.0 142:46.0 143:206.0 144:35.0 145:9.0 146:17.0 147:10.0 149:18.0 150:7.0 151:36.0 152:13.0 153:18.0 154:17.0 155:18.0 156:26.0 157:39.0 158:285.0 159:38.0 160:18.0 161:25.0 162:1.0 163:13.0 164:42.0 165:2.0 166:4.0 167:5.0 168:29.0 169:2.0 172:23.0 173:62.0 174:41.0 175:11.0 176:31.0 177:18.0 178:22.0 180:44.0 181:41.0 182:40.0 183:18.0 184:20.0 185:11.0 186:32.0 187:14.0 188:29.0 189:19.0 190:1.0 191:13.0 193:39.0 195:13.0 196:31.0 197:30.0 198:2.0 199:31.0 200:22.0 201:9.0 202:9.0 203:11.0 205:23.0 206:27.0 207:30.0 208:25.0 209:44.0 210:20.0 211:29.0 212:3.0 213:19.0 214:18.0 215:22.0 216:4.0 217:5.0 218:6.0 219:11.0 220:13.0 221:39.0 222:23.0 223:10.0 224:3.0 225:7.0 226:31.0 227:43.0 228:30.0 229:23.0 230:17.0 231:45.0 232:41.0 233:13.0 234:16.0 235:22.0 236:22.0 238:33.0 239:26.0 240:33.0 241:12.0 242:6.0 243:14.0 244:42.0 245:4.0 246:11.0 247:27.0 248:12.0 249:19.0 251:25.0 252:26.0 253:19.0 254:42.0 255:24.0 257:31.0 258:43.0 259:31.0 260:6.0 261:3.0 262:39.0 264:58.0 265:31.0 266:19.0 267:33.0 268:35.0 269:24.0 270:14.0 271:27.0 272:57.0 273:33.0 274:34.0 275:26.0 276:40.0 278:10.0 279:29.0 280:36.0 281:3.0 282:32.0 283:20.0 284:25.0 285:11.0 286:6.0 287:31.0 288:11.0 289:13.0 291:43.0 292:30.0 293:18.0 294:30.0 295:43.0 296:50.0 297:22.0 298:22.0 299:34.0 300:16.0 301:46.0 303:5.0 304:25.0 305:39.0 306:17.0 307:16.0 308:27.0 309:49.0 310:28.0 311:32.0 312:14.0 313:52.0 314:6.0 315:26.0 316:3.0 317:49.0 318:23.0 319:23.0 320:22.0 321:34.0 322:42.0 323:40.0 324:38.0 325:32.0 326:32.0 327:17.0 328:23.0 329:24.0 330:25.0 331:5.0 332:22.0 333:45.0 334:13.0 335:12.0 336:21.0 337:17.0 338:28.0 339:22.0 340:23.0 341:46.0 342:4.0 343:25.0 344:8.0 345:46.0 346:23.0 347:23.0 348:21.0 349:47.0 350:12.0 351:8.0 353:29.0 354:10.0 355:8.0 356:26.0 357:32.0 358:5.0 359:5.0 360:29.0 361:3.0 363:18.0 364:33.0 365:18.0 366:31.0 367:10.0 368:40.0 369:34.0 370:45.0 371:24.0 372:31.0 373:19.0 374:14.0 375:24.0 376:26.0 377:37.0 378:40.0 379:5.0 381:46.0 383:30.0 384:25.0 385:43.0 386:38.0 387:37.0 389:32.0 390:19.0 391:34.0 392:15.0 393:6.0 395:38.0 396:17.0 397:15.0 398:31.0 399:16.0 400:29.0 401:16.0 402:30.0 403:30.0 404:45.0 405:14.0 406:26.0 407:14.0 408:34.0 409:32.0 410:41.0 411:18.0 413:6.0 414:9.0 415:28.0 416:15.0 417:38.0 418:13.0 419:19.0 421:16.0 422:9.0 423:25.0 424:28.0 425:29.0 426:1.0 427:38.0 428:22.0 429:9.0 430:36.0 431:48.0 432:30.0 433:25.0 434:2.0 435:17.0 436:28.0 437:11.0 438:5.0 439:22.0 440:24.0 441:47.0 442:44.0 443:26.0 444:62.0 445:49.0 446:9.0 447:21.0 448:17.0 450:42.0 451:25.0 452:17.0 453:25.0 454:31.0 455:15.0 456:8.0 457:28.0 458:50.0 459:15.0 460:22.0 461:32.0 462:35.0 463:32.0 464:21.0 465:23.0 466:24.0 467:72.0 468:30.0 469:24.0 470:52.0 471:30.0 472:34.0 473:30.0 474:36.0 475:31.0 477:40.0 478:32.0 479:30.0 480:7.0 481:29.0 482:15.0 483:16.0 484:16.0 485:31.0 486:50.0 487:30.0 488:22.0 489:27.0 490:41.0 491:28.0 492:2.0 493:18.0 494:32.0 495:43.0 496:18.0 497:61.0 499:20.0 500:28.0
C09,14356,9.697,323120,82:1461.0 83:7626.0 84:7545.0 85:1926.0 86:1261.0 87:106113.0 88:10710.0 89:1806.0 90:697.0 91:535.0 92:383.0 93:700.0 94:717.0 95:779.0 96:1040.0 97:3995.0 98:2776.0 99:661.0 100:819.0 101:11017.0 102:1237.0 103:406.0 104:179.0 105:235.0 106:88.0 107:147.0 108:76.0 109:134.0 110:142.0 111:750.0 112:991.0 113:256.0 114:135.0 115:3158.0 116:478.0 117:553.0 118:76.0 119:67.0 120:35.0 121:138.0 122:179.0 123:301.0 124:79.0 125:156.0 126:54.0 127:44.0 128:54.0 129:11473.0 130:1100.0 131:431.0 132:104.0 133:151.0 134:67.0 135:51.0 136:70.0 137:18.0 138:93.0 139:265.0 140:146.0 141:8054.0 142:851.0 143:8091.0 144:820.0 145:229.0 146:63.0 147:869.0 148:226.0 149:163.0 150:80.0 151:82.0 152:75.0 153:69.0 154:71.0 155:92.0 156:69.0 157:118.0 158:115.0 159:58.0 160:80.0 161:77.0 162:53.0 163:61.0 164:31.0 165:5.0 166:16.0 167:7.0 168:14.0 169:7.0 170:15.0 171:15.0 172:860.0 173:117.0 174:1127.0 175:239.0 176:98.0 177:6.0 178:16.0 179:9.0 180:9.0 181:13.0 182:8.0 183:30.0 184:57.0 185:12.0 186:1.0 187:46.0 188:1.0 189:7.0 190:17.0 191:8.0 192:16.0 193:14.0 195:3.0 199:8.0 200:13.0 201:194.0 202:56.0 203:11.0 204:16.0 210:1.0 211:13.0 212:13.0 215:4.0 216:12.0 218:13.0 219:28.0 220:16.0 221:47.0 222:4.0 223:10.0 225:1.0 226:17.0 228:71.0 229:13.0 230:10.0 231:17.0 232:11.0 233:22.0 234:6.0 235:8.0 238:1.0 239:20.0 240:6.0 241:5.0 242:1.0 245:19.0 246:16.0 248:153.0 249:54.0 250:2.0 252:4.0 254:6.0 255:2.0 256:5.0 258:3.0 259:15.0 260:2.0 262:4.0 263:5.0 265:12.0 268:1.0 269:3.0 270:3.0 271:10.0 272:13.0 273:19.0 274:3.0 275:15.0 276:23.0 277:10.0 278:11.0 279:40.0 280:11.0 281:11.0 283:6.0 287:6.0 289:5.0 291:10.0 294:4.0 295:6.0 296:3.0 301:3.0 302:5.0 303:1.0 304:11.0 305:7.0 306:10.0 308:1.0 310:9.0 313:12.0 315:6.0 316:4.0 317:2.0 318:13.0 319:18.0 320:26.0 321:5.0 322:4.0 327:2.0 330:20.0 331:9.0 334:3.0 335:24.0 336:5.0 337:5.0 340:10.0 342:3.0 343:12.0 344:16.0 345:24.0 348:17.0 349:5.0 350:7.0 352:9.0 353:12.0 355:6.0 361:9.0 366:11.0 368:7.0 369:1.0 370:20.0 371:2.0 372:13.0 374:10.0 376:3.0 377:23.0 382:4.0 386:1.0 387:7.0 393:18.0 394:14.0 401:3.0 402:16.0 405:21.0 407:1.0 408:11.0 412:8.0 414:9.0 415:2.0 421:14.0 422:14.0 424:7.0 427:7.0 428:2.0 434:3.0 436:1.0 437:16.0 438:5.0 439:8.0 441:9.0 442:8.0 443:4.0 445:19.0 451:19.0 452:8.0 456:11.0 460:4.0 461:5.0 462:3.0 463:12.0 465:8.0 467:20.0 468:17.0 470:19.0 471:14.0 472:13.0 473:3.0 474:8.0 476:12.0 477:5.0 478:2.0 481:10.0 483:8.0 484:21.0 485:17.0 487:1.0 488:1.0 489:5.0 490:4.0 491:6.0 492:12.0 493:9.0 494:4.0 495:7.0 496:17.0 497:4.0 498:12.0 500:5.0
C10,14391,11.018,381020,82:2900.0 83:13221.0 84:11208.0 85:5544.0 86:1495.0 87:180565.0 88:18205.0 89:2762.0 90:1063.0 91:966.0 92:587.0 93:1236.0 94:797.0 95:3016.0 96:1006.0 97:7113.0 98:6065.0 99:11.0 100:928.0 101:19422.0 102:1942.0 103:785.0 104:297.0 105:371.0 106:124.0 107:437.0 108:202.0 109:283.0 110:776.0 111:1516.0 112:1420.0 113:435.0 114:211.0 115:4005.0 116:984.0 117:258.0 118:110.0 119:95.0 120:66.0 121:171.0 122:88.0 123:143.0 124:107.0 125:615.0 126:234.0 127:87.0 128:62.0 129:8289.0 130:877.0 131:154.0 132:33.0 133:39.0 134:35.0 135:237.0 136:134.0 137:183.0 138:54.0 139:148.0 140:55.0 141:94.0 142:78.0 143:22913.0 144:2357.0 145:273.0 146:101.0 147:21.0 148:29.0 149:73.0 150:96.0 151:109.0 152:119.0 153:247.0 154:186.0 155:8829.0 156:1052.0 157:3632.0 158:492.0 159:153.0 160:137.0 161:120.0 162:135.0 163:115.0 164:114.0 165:84.0 166:67.0 167:77.0 168:30.0 169:87.0 170:92.0 171:127.0 172:73.0 173:101.0 174:79.0 175:95.0 176:77.0 177:82.0 178:70.0 179:24.0 180:24.0 182:10.0 184:23.0 185:13.0 186:1708.0 187:229.0 188:37.0 189:66.0 190:26.0 191:18.0 192:17.0 193:26.0 194:29.0 195:8.0 196:26.0 197:10.0 198:36.0 199:38.0 200:17.0 201:24.0 202:29.0 203:14.0 204:69.0 205:78.0 206:55.0 207:37.0 208:17.0 209:24.0 210:35.0 211:7.0 212:27.0 213:23.0 214:19.0 215:22.0 216:24.0 217:1.0 218:18.0 219:34.0 220:23.0 221:23.0 223:15.0 225:21.0 226:9.0 227:1.0 228:3.0 229:15.0 230:7.0 231:27.0 232:4.0 233:13.0 234:12.0 235:18.0 236:19.0 237:22.0 238:21.0 239:27.0 240:2.0 243:78.0 244:21.0 245:172.0 246:32.0 247:24.0 248:5.0 249:10.0 250:17.0 251:32.0 253:22.0 254:6.0 256:21.0 257:2.0 258:13.0 259:20.0 260:12.0 261:11.0 262:8.0 265:17.0 266:13.0 267:9.0 268:16.0 269:16.0 271:15.0 272:9.0 273:6.0 274:35.0 275:13.0 276:18.0 277:4.0 278:3.0 279:11.0 280:12.0 281:10.0 282:5.0 283:9.0 284:51.0 285:15.0 286:27.0 287:29.0 288:12.0 289:31.0 290:20.0 291:22.0 292:29.0 293:28.0 294:10.0 296:30.0 298:25.0 299:4.0 300:23.0 301:27.0 302:7.0 303:37.0 304:7.0 305:20.0 306:23.0 307:10.0 308:35.0 309:22.0 310:59.0 311:35.0 312:29.0 313:9.0 314:14.0 315:11.0 316:31.0 317:17.0 318:18.0 319:18.0 320:23.0 321:11.0 322:6.0 323:32.0 324:35.0 325:39.0 326:29.0 327:14.0 328:27.0 329:14.0 330:22.0 331:18.0 332:17.0 333:37.0 334:21.0 335:19.0 336:7.0 337:14.0 338:20.0 339:15.0 340:30.0 341:18.0 342:13.0 343:9.0 344:34.0 345:18.0 346:19.0 347:6.0 348:14.0 349:16.0 350:24.0 351:24.0 352:30.0 353:30.0 354:38.0 355:33.0 356:21.0 357:19.0 358:39.0 359:19.0 360:39.0 361:32.0 362:35.0 363:25.0 364:13.0 365:11.0 366:24.0 368:30.0 369:32.0 370:16.0 371:18.0 372:32.0 373:38.0 374:23.0 375:25.0 376:38.0 377:23.0 378:11.0 379:5.0 380:20.0 381:27.0 382:20.0 383:20.0 384:27.0 385:15.0 386:21.0 387:9.0 388:17.0 389:6.0 390:30.0 391:25.0 392:29.0 393:14.0 394:8.0 395:27.0 396:24.0 397:17.0 398:20.0 399:41.0 400:41.0 401:15.0 402:40.0 403:22.0 404:12.0 405:25.0 406:35.0 407:15.0 408:25.0 409:11.0 410:18.0 411:29.0 412:23.0 413:20.0 414:29.0 415:11.0 416:25.0 417:28.0 418:22.0 419:29.0 420:34.0 421:26.0 422:6.0 423:20.0 424:30.0 425:20.0 426:13.0 427:35.0 428:19.0 430:19.0 431:13.0 432:21.0 433:26.0 434:6.0 435:25.0 436:21.0 437:15.0 438:8.0 439:35.0 440:19.0 441:9.0 442:35.0 443:14.0 444:5.0 445:28.0 446:21.0 447:4.0 448:31.0 449:16.0 450:20.0 451:23.0 452:19.0 453:41.0 454:23.0 455:33.0 456:26.0 457:17.0 458:18.0 459:30.0 460:14.0 461:8.0 462:17.0 463:4.0 464:36.0 465:24.0 466:26.0 467:23.0 468:55.0 469:26.0 470:7.0 471:19.0 472:28.0 473:17.0 474:24.0 475:22.0 476:28.0 477:11.0 478:26.0 479:3.0 480:30.0 481:21.0 482:16.0 484:16.0 485:34.0 486:2.0 487:35.0 488:7.0 489:8.0 490:15.0 491:3.0 492:23.0 493:26.0 494:11.0 495:1.0 496:13.0 497:23.0 498:18.0 499:18.0 500:24.0
C12,15538,13.567,487220,87:89125.0 143:9407.0 88:8052.0 83:7697.0 101:7376.0 129:5886.0 171:5376.0 84:4764.0 97:4682.0 115:4499.0 98:3273.0 183:2617.0 85:2330.0 157:1877.0 95:1741.0 185:1713.0 111:1269.0 82:1258.0 214:1176.0 144:979.0 102:970.0 89:944.0 116:886.0 96:874.0 109:745.0 93:703.0 172:693.0 130:681.0 99:640.0 112:536.0 100:512.0 86:415.0 184:391.0 91:388.0 125:367.0 110:356.0 94:315.0 107:313.0 90:276.0 186:276.0 158:270.0 113:262.0 140:246.0 123:243.0 138:212.0 121:210.0 215:177.0 139:173.0 92:172.0 135:150.0 141:143.0 145:139.0 199:137.0 127:128.0 114:116.0 163:114.0 105:105.0 173:101.0 131:100.0 153:100.0 124:98.0 126:97.0 108:84.0 104:76.0 156:76.0 117:74.0 181:74.0 122:71.0 164:69.0 142:60.0 187:60.0 137:58.0 151:58.0 128:56.0 106:55.0 159:54.0 182:54.0 136:52.0 146:52.0 200:49.0 180:47.0 103:46.0 118:45.0 165:44.0 119:43.0 190:43.0 197:42.0 152:41.0 188:40.0 154:39.0 178:39.0 166:38.0 174:38.0 167:37.0 169:37.0 201:37.0 202:37.0 132:36.0 192:36.0 382:36.0 286:35.0 160:34.0 189:34.0 477:34.0 191:33.0 194:33.0 196:33.0 168:32.0 179:32.0 149:30.0 150:30.0 193:30.0 234:30.0 134:29.0 170:28.0 213:28.0 222:28.0 249:28.0 362:28.0 436:28.0 120:27.0 162:27.0 176:27.0 195:27.0 476:27.0 488:27.0 209:26.0 289:26.0 236:25.0 282:25.0 379:25.0 381:25.0 469:25.0 177:24.0 225:24.0 301:24.0 351:24.0 438:24.0 452:24.0 258:23.0 287:23.0 294:23.0 322:23.0 372:23.0 377:23.0 465:23.0 480:23.0 497:23.0 175:22.0 207:22.0 210:22.0 218:22.0 220:22.0 240:22.0 257:22.0 295:22.0 376:22.0 430:22.0 208:21.0 216:21.0 246:21.0 293:21.0 297:21.0 330:21.0 363:21.0 399:21.0 425:21.0 431:21.0 446:21.0 466:21.0 237:20.0 271:20.0 283:20.0 313:20.0 325:20.0 344:20.0 413:20.0 422:20.0 462:20.0 489:20.0 133:19.0 211:19.0 241:19.0 255:19.0 259:19.0 302:19.0 306:19.0 310:19.0 326:19.0 371:19.0 420:19.0 428:19.0 233:18.0 252:18.0 331:18.0 339:18.0 360:18.0 369:18.0 385:18.0 406:18.0 411:18.0 443:18.0 447:18.0 470:18.0 472:18.0 478:18.0 485:18.0 155:17.0 231:17.0 244:17.0 260:17.0 288:17.0 303:17.0 304:17.0 329:17.0 337:17.0 398:17.0 423:17.0 427:17.0 463:17.0 468:17.0 473:17.0 495:17.0 238:16.0 250:16.0 273:16.0 284:16.0 317:16.0 327:16.0 334:16.0 336:16.0 338:16.0 348:16.0 353:16.0 359:16.0 361:16.0 368:16.0 370:16.0 390:16.0 391:16.0 396:16.0 403:16.0 408:16.0 416:16.0 432:16.0 440:16.0 449:16.0 198:15.0 227:15.0 285:15.0 333:15.0 335:15.0 340:15.0 343:15.0 366:15.0 400:15.0 409:15.0 429:15.0 448:15.0 460:15.0 474:15.0 161:14.0 212:14.0 223:14.0 261:14.0 305:14.0 308:14.0 311:14.0 332:14.0 414:14.0 415:14.0 419:14.0 424:14.0 441:14.0 450:14.0 457:14.0 490:14.0 496:14.0 500:14.0 206:13.0 221:13.0 254:13.0 265:13.0 272:13.0 315:13.0 324:13.0 341:13.0 345:13.0 356:13.0 386:13.0 401:13.0 402:13.0 410:13.0 417:13.0 454:13.0 467:13.0 475:13.0 479:13.0 484:13.0 232:12.0 235:12.0 263:12.0 299:12.0 364:12.0 384:12.0 389:12.0 421:12.0 451:12.0 471:12.0 239:11.0 267:11.0 269:11.0 274:11.0 275:11.0 290:11.0 296:11.0 346:11.0 352:11.0 387:11.0 407:11.0 482:11.0 492:11.0 204:10.0 219:10.0 300:10.0 314:10.0 318:10.0 323:10.0 358:10.0 365:10.0 397:10.0 437:10.0 459:10.0 494:10.0 148:9.0 264:9.0 378:9.0 433:9.0 444:9.0 455:9.0 458:9.0 461:9.0 499:9.0 228:8.0 230:8.0 242:8.0 245:8.0 266:8.0 309:8.0 320:8.0 354:8.0 412:8.0 418:8.0 442:8.0 453:8.0 493:8.0 280:7.0 367:7.0 373:7.0 388:7.0 392:7.0 394:7.0 434:7.0 445:7.0 486:7.0 316:6.0 350:6.0 357:6.0 374:6.0 375:6.0 380:6.0 383:6.0 393:6.0 404:6.0 426:6.0 456:6.0 224:5.0 253:5.0 270:5.0 278:5.0 298:5.0 405:5.0 276:4.0 281:4.0 312:4.0 435:4.0 464:4.0 481:4.0 487:4.0 251:3.0 279:3.0 355:3.0 395:3.0 498:3.0 292:2.0 342:2.0 349:2.0 203:1.0 226:1.0 229:1.0 256:1.0 347:1.0
C14,14330,15.902,582620,82:6846.0 83:45734.0 84:24541.0 85:13337.0 86:2591.0 87:571091.0 88:50094.0 89:10256.0 90:1954.0 91:2301.0 92:965.0 93:4658.0 94:1828.0 95:9776.0 96:4566.0 97:29791.0 98:17396.0 99:3982.0 100:2427.0 101:47790.0 102:5412.0 103:40347.0 104:4285.0 105:2466.0 106:413.0 107:2369.0 108:640.0 109:3742.0 110:1575.0 111:9047.0 112:3062.0 113:2475.0 114:1382.0 115:12398.0 116:4894.0 117:24303.0 118:2568.0 119:1916.0 120:268.0 121:1879.0 122:424.0 123:1579.0 124:753.0 125:3111.0 126:678.0 127:753.0 128:224.0 129:38137.0 130:6547.0 131:4614.0 132:819.0 133:10723.0 134:1546.0 135:1874.0 136:295.0 137:622.0 138:391.0 139:1139.0 140:305.0 141:507.0 142:331.0 143:66754.0 144:7759.0 145:1350.0 146:393.0 147:56983.0 148:9583.0 149:6384.0 150:867.0 151:551.0 152:209.0 153:665.0 154:276.0 155:682.0 156:286.0 157:23754.0 158:3172.0 159:1198.0 160:2848.0 161:864.0 162:331.0 163:1318.0 164:336.0 165:264.0 166:532.0 167:573.0 168:724.0 169:789.0 170:234.0 171:4127.0 172:806.0 173:372.0 174:464.0 175:1357.0 176:356.0 177:805.0 178:257.0 179:182.0 180:140.0 181:322.0 182:193.0 183:1071.0 184:257.0 185:7519.0 186:1437.0 187:298.0 188:136.0 189:6382.0 190:1746.0 191:4934.0 192:1026.0 193:574.0 194:192.0 195:169.0 196:116.0 197:85.0 198:124.0 199:20112.0 200:3378.0 201:774.0 202:349.0 203:777.0 204:6005.0 205:32884.0 206:6763.0 207:3831.0 208:756.0 209:511.0 210:384.0 211:8657.0 212:1593.0 213:4688.0 214:1328.0 215:663.0 216:465.0 217:26872.0 218:6100.0 219:2887.0 220:642.0 221:1979.0 222:651.0 223:451.0 224:257.0 225:228.0 226:442.0 227:293.0 228:199.0 229:3744.0 230:1385.0 231:2180.0 232:564.0 233:315.0 234:137.0 235:112.0 236:80.0 237:125.0 238:75.0 239:222.0 240:135.0 241:312.0 242:7676.0 243:1790.0 244:334.0 245:159.0 246:103.0 248:69.0 249:118.0 250:102.0 251:78.0 252:81.0 253:72.0 254:79.0 255:1047.0 256:339.0 257:463.0 258:156.0 259:556.0 260:182.0 261:103.0 262:168.0 263:53.0 264:56.0 265:328.0 266:140.0 267:105.0 268:63.0 269:67.0 270:48.0 271:85.0 272:57.0 273:100.0 274:109.0 275:43.0 276:31.0 277:1297.0 278:762.0 279:335.0 280:113.0 281:42.0 282:28.0 283:50.0 284:39.0 285:112.0 286:42.0 287:26.0 288:4.0 289:45.0 290:60.0 291:1403.0 292:397.0 293:220.0 294:47.0 295:16.0 296:25.0 297:28.0 298:33.0 299:50.0 300:51.0 303:39.0 304:24.0 305:902.0 306:641.0 307:3653.0 308:1144.0 309:549.0 310:143.0 311:40.0 312:57.0 313:63.0 314:36.0 315:25.0 316:20.0 317:139.0 318:256.0 319:25160.0 320:8054.0 321:3885.0 322:912.0 323:276.0 324:88.0 325:73.0 326:82.0 327:88.0 328:59.0 329:198.0 330:139.0 331:1360.0 332:469.0 333:282.0 334:87.0 335:25.0 336:55.0 337:64.0 338:62.0 339:69.0 340:86.0 341:65.0 342:94.0 343:82.0 344:96.0 345:1099.0 346:387.0 347:215.0 348:52.0 349:38.0 350:37.0 351:39.0 352:52.0 353:58.0 354:35.0 355:169.0 356:90.0 357:27.0 358:19.0 359:13.0 360:3.0 361:13.0 362:16.0 363:11.0 364:47.0 365:28.0 366:10.0 367:35.0 368:33.0 369:28.0 370:24.0 371:7.0 372:23.0 373:24.0 374:20.0 375:45.0 376:3.0 377:3.0 378:11.0 379:23.0 380:7.0 381:23.0 382:16.0 383:28.0 384:22.0 385:20.0 386:19.0 387:19.0 388:23.0 389:16.0 390:12.0 391:12.0 393:30.0 395:13.0 396:31.0 397:21.0 398:10.0 399:25.0 400:7.0 401:18.0 402:16.0 403:24.0 404:8.0 405:39.0 406:7.0 408:16.0 409:70.0 410:37.0 411:26.0 412:12.0 413:29.0 414:16.0 415:22.0 416:29.0 417:26.0 418:39.0 419:351.0 420:191.0 421:520.0 422:240.0 423:128.0 424:38.0 425:21.0 426:10.0 427:14.0 428:5.0 429:9.0 430:10.0 431:19.0 432:24.0 433:14.0 434:51.0 435:35.0 436:19.0 437:10.0 438:7.0 439:20.0 440:23.0 441:17.0 442:19.0 443:17.0 444:23.0 445:2.0 446:7.0 447:5.0 448:21.0 449:11.0 450:25.0 451:13.0 452:20.0 453:13.0 454:7.0 455:8.0 456:13.0 457:8.0 458:26.0 459:18.0 460:19.0 461:28.0 462:25.0 463:13.0 464:14.0 465:16.0 466:20.0 467:13.0 468:14.0 469:12.0 470:13.0 471:16.0 472:11.0 473:14.0 474:13.0 475:8.0 476:15.0 477:21.0 478:19.0 479:22.0 480:9.0 481:3.0 482:11.0 483:26.0 485:13.0 486:18.0 487:1.0 488:8.0 489:24.0 490:10.0 491:8.0 492:17.0 493:4.0 494:22.0 495:12.0 496:26.0 497:18.0 498:8.0 499:15.0 500:16.0
C16,14328,18.033,668720,82:7874.0 83:52241.0 84:24201.0 85:15726.0 86:2428.0 87:598692.0 88:50073.0 89:5783.0 90:1690.0 91:2384.0 92:1041.0 93:5596.0 94:2004.0 95:12075.0 96:5526.0 97:35942.0 98:18845.0 99:4181.0 100:2473.0 101:45027.0 102:5856.0 103:1639.0 104:500.0 105:737.0 106:300.0 107:3048.0 108:712.0 109:4582.0 110:1980.0 111:10364.0 112:3206.0 113:2024.0 114:840.0 115:17535.0 116:5756.0 117:605.0 118:178.0 119:363.0 120:105.0 121:2457.0 122:479.0 123:1999.0 124:857.0 125:4041.0 126:888.0 127:740.0 128:555.0 129:32798.0 130:6556.0 131:900.0 132:227.0 133:125.0 134:69.0 135:1710.0 136:323.0 137:700.0 138:434.0 139:1703.0 141:340.0 142:161.0 143:66481.0 144:8031.0 145:921.0 146:279.0 148:86.0 149:1005.0 150:244.0 151:315.0 152:338.0 153:757.0 154:314.0 155:243.0 156:253.0 157:9002.0 158:1952.0 159:306.0 160:157.0 161:63.0 162:111.0 163:480.0 164:170.0 165:202.0 166:138.0 167:448.0 168:237.0 169:38.0 170:146.0 171:15768.0 172:2882.0 173:562.0 174:124.0 175:45.0 176:85.0 177:264.0 178:120.0 179:1574.0 180:355.0 181:356.0 182:140.0 183:86.0 184:67.0 185:12795.0 186:2341.0 187:453.0 188:150.0 189:26.0 190:39.0 191:174.0 192:80.0 193:81.0 194:34.0 195:190.0 196:312.0 197:119.0 198:97.0 199:9247.0 200:1701.0 201:242.0 202:118.0 203:55.0 204:207.0 206:42.0 207:22.0 208:181.0 209:181.0 210:98.0 211:55.0 212:73.0 213:3876.0 214:878.0 215:147.0 216:111.0 218:26.0 219:163.0 220:168.0 221:56.0 222:89.0 223:81.0 224:80.0 225:62.0 226:111.0 227:17662.0 228:3336.0 229:493.0 230:176.0 231:144.0 232:122.0 233:94.0 234:118.0 235:105.0 236:166.0 237:217.0 238:222.0 239:5769.0 240:1251.0 241:4165.0 242:1625.0 243:344.0 244:159.0 245:143.0 246:73.0 247:102.0 248:103.0 249:75.0 250:79.0 251:99.0 252:106.0 253:71.0 254:81.0 255:140.0 256:138.0 257:40.0 258:69.0 259:50.0 260:48.0 261:17.0 264:3.0 265:30.0 266:3.0 267:10.0 268:41.0 269:99.0 270:8434.0 271:1909.0 272:282.0 273:35.0 274:42.0 275:13.0 276:34.0 277:8.0 278:17.0 279:9.0 280:24.0 281:30.0 282:43.0 283:24.0 284:19.0 285:29.0 286:28.0 287:1.0 289:31.0 290:20.0 291:20.0 292:29.0 293:7.0 294:34.0 295:18.0 296:23.0 297:20.0 298:10.0 299:13.0 300:6.0 301:13.0 302:8.0 310:29.0 311:14.0 312:8.0 314:10.0 315:16.0 316:6.0 321:6.0 325:4.0 326:10.0 327:16.0 329:17.0 330:19.0 332:7.0 334:1.0 338:18.0 339:3.0 340:10.0 341:14.0 342:39.0 343:30.0 344:16.0 346:1.0 347:14.0 348:4.0 349:8.0 350:3.0 352:6.0 355:26.0 356:17.0 357:7.0 358:2.0 359:3.0 364:5.0 365:10.0 367:9.0 369:8.0 370:10.0 371:10.0 372:19.0 374:9.0 375:2.0 376:3.0 377:15.0 378:8.0 380:4.0 382:3.0 385:17.0 386:11.0 387:7.0 388:13.0 389:19.0 390:7.0 391:13.0 392:19.0 393:10.0 394:6.0 395:1.0 396:2.0 397:17.0 398:4.0 399:3.0 400:7.0 401:19.0 402:10.0 403:13.0 404:16.0 405:14.0 406:7.0 407:13.0 410:18.0 411:1.0 412:12.0 413:9.0 414:20.0 415:2.0 416:7.0 417:22.0 418:12.0 419:5.0 421:6.0 422:19.0 423:5.0 424:24.0 425:3.0 427:8.0 430:20.0 431:11.0 432:6.0 433:6.0 438:8.0 439:18.0 440:8.0 441:15.0 443:16.0 444:10.0 447:13.0 449:10.0 450:10.0 451:2.0 452:10.0 453:8.0 454:12.0 456:7.0 457:3.0 458:18.0 459:11.0 460:10.0 461:12.0 462:17.0 463:19.0 464:12.0 465:4.0 466:5.0 467:5.0 468:17.0 470:9.0 471:17.0 472:22.0 474:6.0 475:22.0 476:7.0 477:6.0 478:9.0 480:5.0 481:2.0 482:10.0 483:12.0 484:13.0 486:4.0 487:8.0 488:26.0 489:7.0 491:16.0 492:2.0 493:4.0 494:4.0 495:13.0 496:1.0 499:7.0 500:4.0
C18,14344,19.950,747420,82:1871.0 83:20933.0 84:9746.0 85:6550.0 86:978.0 87:204914.0 88:17820.0 89:2588.0 90:624.0 91:328.0 92:267.0 93:1563.0 94:298.0 95:3334.0 96:1383.0 97:15003.0 98:6800.0 99:1751.0 100:895.0 101:17632.0 102:1953.0 103:2705.0 104:356.0 105:381.0 106:55.0 107:1016.0 108:138.0 109:1363.0 110:506.0 111:4334.0 112:1204.0 113:879.0 114:963.0 115:4477.0 116:1971.0 117:1287.0 118:152.0 119:139.0 120:2.0 121:941.0 122:37.0 123:647.0 124:150.0 125:1645.0 126:328.0 127:330.0 128:161.0 129:12067.0 130:2793.0 131:402.0 132:137.0 133:537.0 134:140.0 135:639.0 136:68.0 137:247.0 138:119.0 139:791.0 140:11.0 141:143.0 142:120.0 143:27456.0 144:3095.0 145:269.0 147:3315.0 148:533.0 149:643.0 151:76.0 152:111.0 153:437.0 154:152.0 155:65.0 156:87.0 157:4338.0 158:746.0 159:146.0 160:65.0 161:19.0 162:65.0 163:302.0 165:38.0 166:136.0 167:224.0 168:49.0 169:304.0 170:95.0 171:1791.0 172:507.0 173:157.0 174:100.0 175:168.0 176:6.0 177:141.0 178:44.0 180:68.0 181:138.0 182:82.0 183:29.0 184:40.0 185:3383.0 186:820.0 187:108.0 188:99.0 189:251.0 190:139.0 191:1967.0 192:406.0 193:259.0 194:68.0 195:119.0 196:48.0 197:48.0 198:44.0 199:6387.0 200:1216.0 201:138.0 202:114.0 203:52.0 205:849.0 206:171.0 207:180.0 208:47.0 209:87.0 210:92.0 211:86.0 212:15.0 213:2345.0 214:524.0 215:115.0 216:66.0 217:1835.0 218:406.0 219:573.0 220:125.0 221:134.0 222:142.0 223:66.0 224:135.0 225:43.0 226:53.0 227:876.0 228:261.0 229:150.0 230:70.0 231:83.0 232:40.0 233:35.0 234:10.0 235:27.0 236:12.0 237:41.0 238:54.0 239:13.0 240:27.0 241:1330.0 242:413.0 243:142.0 244:99.0 245:86.0 246:19.0 247:61.0 248:22.0 249:1.0 250:124.0 251:48.0 252:33.0 253:21.0 254:66.0 255:5059.0 256:1379.0 257:311.0 258:122.0 259:386.0 260:169.0 261:111.0 262:508.0 263:113.0 264:170.0 265:103.0 266:102.0 267:1409.0 268:336.0 269:910.0 270:474.0 271:184.0 272:71.0 273:63.0 274:26.0 275:46.0 276:56.0 277:128.0 278:65.0 279:15.0 280:64.0 281:46.0 282:41.0 283:40.0 284:46.0 285:61.0 286:35.0 287:4.0 288:30.0 289:36.0 291:47.0 293:11.0 295:13.0 298:3278.0 299:823.0 300:168.0 301:73.0 302:42.0 303:63.0 305:371.0 306:153.0 307:352.0 308:107.0 309:130.0 310:11.0 312:46.0 313:14.0 314:25.0 315:35.0 316:39.0 317:56.0 318:38.0 319:310.0 320:128.0 321:82.0 322:17.0 324:18.0 326:9.0 327:23.0 328:8.0 329:15.0 330:37.0 331:621.0 332:203.0 333:167.0 335:29.0 336:14.0 337:91.0 338:52.0 339:6.0 341:22.0 342:10.0 344:24.0 345:24.0 346:12.0 347:6.0 348:3.0 350:5.0 352:10.0 353:19.0 354:20.0 355:27.0 357:50.0 360:34.0 361:7.0 362:18.0 363:10.0 364:37.0 365:15.0 366:2.0 368:14.0 369:9.0 370:9.0 372:1.0 374:46.0 376:61.0 377:41.0 378:21.0 379:24.0 380:22.0 381:71.0 382:18.0 383:56.0 385:20.0 387:34.0 389:38.0 390:14.0 391:14.0 394:5.0 396:12.0 397:28.0 398:28.0 399:15.0 400:12.0 401:28.0 403:8.0 404:23.0 405:1.0 406:7.0 407:22.0 408:16.0 412:20.0 414:5.0 416:18.0 417:25.0 418:26.0 419:17.0 420:4.0 421:168.0 422:104.0 423:26.0 425:32.0 426:18.0 427:36.0 428:1.0 429:38.0 430:7.0 431:14.0 432:36.0 435:38.0 436:25.0 437:17.0 438:8.0 439:11.0 440:6.0 441:26.0 442:12.0 443:12.0 444:5.0 445:33.0 446:27.0 447:3.0 448:23.0 449:3.0 450:2.0 451:2.0 452:22.0 453:27.0 454:16.0 455:18.0 456:23.0 457:3.0 462:17.0 464:6.0 465:26.0 467:19.0 468:11.0 469:20.0 470:26.0 471:3.0 472:14.0 473:9.0 474:24.0 475:36.0 478:11.0 479:5.0 481:11.0 482:10.0 483:15.0 485:29.0 487:10.0 489:23.0 490:19.0 491:42.0 492:19.0 494:6.0 495:9.0 496:22.0 497:28.0 499:41.0 500:57.0
C20,14338,21.733,819620,82:5074.0 83:32673.0 84:13151.0 85:11426.0 86:1478.0 87:319100.0 88:24805.0 89:2994.0 90:793.0 91:2054.0 92:696.0 93:3531.0 94:1307.0 95:8269.0 96:3740.0 97:23136.0 98:10533.0 99:2945.0 100:1329.0 101:24132.0 102:3016.0 103:840.0 104:332.0 105:729.0 106:281.0 107:2176.0 108:615.0 109:3504.0 110:1486.0 111:7673.0 112:2075.0 113:1494.0 114:602.0 115:7860.0 116:3323.0 117:697.0 118:158.0 119:419.0 120:250.0 121:2213.0 122:481.0 123:1709.0 124:712.0 125:3212.0 126:618.0 127:575.0 128:329.0 129:17817.0 130:4397.0 131:641.0 132:191.0 133:345.0 134:211.0 135:1588.0 136:330.0 137:701.0 138:417.0 139:1486.0 140:381.0 141:427.0 142:171.0 143:39951.0 144:4602.0 145:597.0 146:189.0 147:20.0 148:126.0 149:1062.0 150:253.0 151:362.0 152:304.0 153:825.0 154:278.0 155:216.0 156:154.0 157:5018.0 158:1076.0 159:342.0 160:147.0 161:93.0 162:181.0 163:521.0 164:175.0 165:218.0 166:155.0 167:414.0 168:139.0 169:97.0 170:94.0 171:4751.0 172:1115.0 173:227.0 174:119.0 175:56.0 176:64.0 177:308.0 178:126.0 179:198.0 180:135.0 181:285.0 182:108.0 183:89.0 184:112.0 185:6121.0 186:1361.0 187:242.0 188:90.0 189:49.0 190:31.0 191:74.0 192:45.0 193:51.0 194:58.0 195:173.0 196:131.0 197:90.0 198:76.0 199:5945.0 200:1112.0 201:208.0 202:110.0 203:51.0 205:175.0 206:8.0 207:111.0 208:79.0 209:198.0 210:141.0 211:90.0 212:63.0 213:1813.0 214:561.0 215:158.0 216:60.0 217:128.0 218:69.0 219:157.0 220:87.0 221:50.0 222:154.0 223:130.0 224:92.0 225:78.0 226:97.0 227:4901.0 228:1035.0 229:174.0 230:70.0 231:9.0 232:37.0 233:71.0 234:97.0 235:82.0 236:72.0 237:127.0 238:52.0 239:77.0 240:83.0 241:2986.0 242:800.0 243:143.0 244:74.0 245:30.0 246:14.0 247:83.0 248:174.0 249:77.0 250:182.0 251:121.0 252:179.0 253:74.0 254:66.0 255:1510.0 256:460.0 257:141.0 258:66.0 259:81.0 260:66.0 261:47.0 262:77.0 263:74.0 264:74.0 265:88.0 266:88.0 267:72.0 268:53.0 269:1061.0 270:369.0 271:98.0 272:103.0 273:56.0 274:44.0 275:78.0 276:95.0 277:100.0 278:124.0 279:22.0 280:88.0 281:85.0 282:115.0 283:5194.0 284:1878.0 285:391.0 286:107.0 287:96.0 288:80.0 289:50.0 290:71.0 291:48.0 292:74.0 293:87.0 294:111.0 295:1257.0 296:444.0 297:1090.0 298:730.0 299:189.0 300:64.0 301:70.0 302:61.0 303:62.0 304:51.0 305:11.0 306:29.0 307:15.0 308:31.0 309:19.0 310:37.0 311:56.0 312:50.0 313:26.0 314:37.0 315:60.0 316:32.0 317:30.0 318:15.0 319:1.0 322:1.0 325:102.0 326:4821.0 327:1621.0 328:319.0 329:110.0 330:45.0 331:37.0 332:19.0 333:13.0 335:7.0 340:34.0 341:29.0 342:36.0 343:43.0 344:23.0 345:29.0 346:16.0 347:24.0 348:23.0 351:2.0 355:2.0 356:3.0 357:21.0 358:32.0 359:14.0 360:27.0 363:16.0 372:104.0 373:47.0 374:32.0 375:11.0 376:32.0 377:37.0 378:25.0 380:14.0 381:1.0 387:4.0 388:4.0 389:19.0 390:24.0 391:15.0 392:7.0 393:10.0 394:5.0 395:7.0 396:3.0 397:18.0 398:6.0 399:2.0 400:1.0 401:3.0 402:14.0 403:8.0 404:4.0 405:4.0 406:26.0 407:12.0 408:16.0 410:4.0 411:30.0 412:8.0 413:28.0 414:24.0 415:31.0 416:20.0 418:7.0 419:6.0 420:12.0 421:15.0 422:20.0 423:17.0 424:34.0 425:10.0 426:6.0 427:17.0 428:9.0 429:13.0 430:17.0 432:6.0 433:6.0 434:15.0 435:6.0 436:16.0 437:29.0 438:8.0 439:8.0 440:1.0 441:5.0 442:7.0 443:4.0 444:1.0 445:7.0 446:7.0 447:14.0 448:13.0 449:19.0 450:7.0 451:15.0 452:6.0 453:21.0 454:8.0 455:3.0 457:2.0 458:16.0 459:8.0 460:10.0 461:1.0 462:21.0 463:20.0 464:28.0 465:2.0 466:27.0 467:10.0 468:11.0 469:8.0 470:12.0 471:16.0 472:5.0 473:9.0 474:2.0 475:14.0 476:15.0 477:7.0 478:6.0 479:17.0 480:21.0 481:19.0 482:22.0 483:13.0 484:27.0 485:9.0 486:3.0 487:13.0 488:16.0 489:3.0 490:11.0 491:16.0 492:7.0 493:20.0 494:7.0 495:2.0 496:3.0 497:24.0 498:24.0 499:16.0 500:15.0
C22,14350,23.370,886620,82:3004.0 83:21231.0 84:7857.0 85:8524.0 86:1136.0 87:166117.0 88:15670.0 89:1631.0 90:255.0 91:185.0 92:253.0 93:1704.0 94:690.0 95:5682.0 96:2240.0 97:17196.0 98:6247.0 99:1862.0 100:603.0 101:15683.0 102:1823.0 103:582.0 104:28.0 105:240.0 107:1288.0 108:115.0 109:2286.0 110:858.0 111:5184.0 112:1387.0 113:1036.0 114:338.0 115:4373.0 116:2108.0 117:334.0 118:87.0 120:97.0 121:1400.0 122:444.0 123:1191.0 124:254.0 125:2450.0 126:303.0 127:340.0 128:77.0 129:11263.0 130:3023.0 131:398.0 133:86.0 134:22.0 135:1150.0 136:136.0 137:335.0 138:140.0 139:1149.0 140:63.0 141:279.0 142:149.0 143:26992.0 144:3041.0 145:351.0 147:337.0 149:694.0 150:142.0 151:96.0 152:5.0 153:552.0 154:184.0 156:5.0 157:3483.0 158:430.0 159:11.0 160:141.0 161:148.0 163:454.0 164:171.0 165:79.0 166:1.0 167:436.0 168:1.0 169:179.0 170:118.0 171:1656.0 172:458.0 173:121.0 174:49.0 175:67.0 177:69.0 178:46.0 179:1.0 180:48.0 181:159.0 185:3124.0 186:752.0 187:32.0 189:156.0 191:99.0 192:23.0 194:37.0 195:63.0 196:64.0 198:87.0 199:4728.0 200:960.0 201:117.0 202:71.0 203:63.0 205:205.0 206:29.0 209:85.0 212:35.0 213:1448.0 214:243.0 217:434.0 218:44.0 219:89.0 220:54.0 222:7.0 227:687.0 228:134.0 229:43.0 237:53.0 240:31.0 241:1017.0 242:301.0 247:27.0 249:34.0 250:40.0 255:2838.0 256:608.0 257:222.0 258:70.0 259:60.0 260:28.0 261:54.0 265:36.0 268:29.0 269:965.0 270:207.0 271:109.0 272:3.0 274:2.0 275:3.0 276:66.0 277:9.0 280:95.0 281:71.0 283:224.0 284:76.0 285:3.0 286:15.0 289:18.0 296:38.0 297:549.0 298:103.0 299:69.0 301:19.0 304:33.0 306:19.0 307:124.0 309:16.0 311:2562.0 312:1270.0 313:131.0 314:12.0 316:26.0 318:31.0 319:34.0 321:81.0 322:29.0 323:520.0 324:130.0 325:408.0 326:327.0 327:77.0 338:17.0 339:57.0 343:14.0 348:5.0 351:25.0 354:2648.0 355:1043.0 356:280.0 359:15.0 361:188.0 362:44.0 363:25.0 368:64.0 370:24.0 373:37.0 377:17.0 378:26.0 385:37.0 390:58.0 391:39.0 394:16.0 397:17.0 405:34.0 416:146.0 418:24.0 421:11.0 436:32.0 438:38.0 439:19.0 445:37.0 446:64.0 451:31.0 454:51.0 469:17.0 472:16.0 494:34.0
C24,14373,24.885,948820,82:1153.0 83:8590.0 84:3071.0 85:3471.0 86:396.0 87:59844.0 88:5161.0 89:641.0 90:144.0 94:31.0 95:1422.0 96:830.0 97:5744.0 98:2544.0 99:783.0 100:334.0 101:4696.0 102:589.0 107:174.0 109:800.0 110:323.0 111:2176.0 112:466.0 113:369.0 114:184.0 115:1576.0 116:697.0 121:268.0 123:395.0 124:149.0 125:962.0 126:180.0 127:185.0 128:94.0 129:1766.0 130:908.0 133:104.0 135:239.0 136:22.0 137:212.0 138:123.0 139:411.0 140:93.0 141:96.0 142:121.0 143:9880.0 144:1086.0 149:232.0 150:62.0 151:102.0 152:85.0 153:232.0 154:69.0 155:84.0 156:46.0 157:1115.0 158:249.0 159:8.0 160:13.0 163:88.0 164:6.0 165:43.0 166:24.0 168:32.0 169:83.0 170:23.0 171:734.0 172:176.0 173:38.0 177:123.0 178:71.0 179:58.0 180:16.0 181:119.0 182:29.0 183:86.0 184:15.0 185:1199.0 186:255.0 188:12.0 189:209.0 190:78.0 191:958.0 192:142.0 193:146.0 195:32.0 196:19.0 197:42.0 198:8.0 199:1421.0 200:260.0 208:45.0 209:27.0 210:15.0 212:4.0 213:295.0 214:73.0 215:41.0 216:16.0 217:688.0 218:144.0 219:40.0 220:25.0 221:93.0 222:22.0 223:70.0 224:33.0 227:535.0 228:111.0 229:39.0 230:123.0 231:72.0 232:33.0 233:45.0 234:33.0 236:30.0 237:2.0 238:24.0 239:43.0 240:17.0 241:494.0 242:125.0 243:109.0 244:14.0 245:49.0 246:82.0 247:26.0 248:41.0 249:10.0 250:17.0 251:24.0 252:16.0 253:11.0 254:35.0 255:320.0 256:114.0 257:48.0 258:27.0 262:20.0 263:31.0 264:4.0 265:49.0 266:30.0 269:167.0 270:76.0 271:51.0 272:11.0 273:9.0 274:23.0 275:17.0 276:1.0 278:2.0 279:8.0 280:9.0 281:2.0 282:17.0 283:573.0 284:175.0 285:68.0 286:11.0 287:17.0 288:17.0 289:37.0 290:44.0 291:61.0 292:46.0 293:16.0 294:14.0 295:14.0 296:12.0 297:297.0 298:121.0 299:12.0 300:19.0 301:13.0 302:23.0 304:36.0 305:134.0 306:54.0 307:13.0 308:1.0 309:18.0 310:24.0 311:119.0 312:56.0 313:22.0 314:41.0 315:40.0 316:32.0 317:49.0 318:285.0 319:134.0 320:80.0 321:18.0 324:18.0 325:157.0 326:74.0 327:42.0 328:23.0 329:31.0 330:15.0 331:45.0 332:77.0 333:34.0 334:23.0 336:1.0 338:10.0 339:720.0 340:519.0 341:151.0 342:67.0 343:30.0 344:29.0 345:42.0 346:17.0 347:32.0 348:23.0 349:25.0 351:128.0 352:98.0 353:156.0 354:136.0 355:71.0 356:25.0 359:27.0 360:16.0 361:29.0 362:33.0 363:4.0 364:34.0 367:13.0 368:36.0 369:22.0 371:10.0 372:9.0 373:31.0 374:21.0 375:13.0 377:42.0 378:10.0 379:22.0 380:8.0 381:70.0 382:1029.0 383:588.0 384:149.0 385:10.0 387:23.0 388:29.0 389:1.0 390:23.0 392:14.0 396:3.0 400:13.0 401:7.0 405:23.0 406:6.0 407:24.0 409:11.0 410:4.0 415:12.0 416:2.0 418:27.0 419:30.0 420:17.0 422:24.0 423:16.0 424:28.0 425:2.0 427:6.0 428:33.0 430:2.0 431:20.0 434:7.0 435:25.0 436:15.0 437:7.0 438:39.0 439:37.0 440:6.0 441:8.0 442:15.0 443:18.0 445:3.0 450:21.0 451:9.0 452:5.0 453:26.0 455:2.0 459:19.0 460:19.0 464:38.0 465:4.0 466:5.0 469:7.0 470:11.0 471:17.0 472:1.0 474:11.0 475:10.0 476:10.0 478:16.0 479:10.0 480:5.0 484:12.0 486:27.0 487:2.0 490:23.0 494:11.0 497:5.0 498:5.0 499:12.0 500:20.0
C26,14367,26.295,1006900,82:1915.0 83:11877.0 84:3974.0 85:5299.0 86:566.0 87:71923.0 88:6118.0 89:777.0 90:208.0 91:390.0 92:183.0 93:1025.0 94:393.0 95:2968.0 96:1369.0 97:7988.0 98:3576.0 99:1173.0 100:384.0 101:6523.0 102:814.0 103:275.0 104:67.0 105:188.0 106:107.0 107:760.0 108:225.0 109:1382.0 110:544.0 111:2977.0 112:693.0 113:570.0 114:190.0 115:2039.0 116:1089.0 117:276.0 118:52.0 119:141.0 120:67.0 121:864.0 122:184.0 123:652.0 124:294.0 125:1353.0 126:256.0 127:290.0 128:118.0 129:5042.0 130:1605.0 131:266.0 132:79.0 133:178.0 134:77.0 135:739.0 136:152.0 137:323.0 138:163.0 139:672.0 140:167.0 141:164.0 142:94.0 143:12857.0 144:1473.0 145:187.0 146:74.0 147:354.0 148:76.0 149:505.0 150:75.0 151:153.0 152:108.0 153:372.0 154:104.0 155:113.0 156:81.0 157:1461.0 158:265.0 159:88.0 160:51.0 161:55.0 162:43.0 163:231.0 164:69.0 165:96.0 166:67.0 167:213.0 168:72.0 169:146.0 170:50.0 171:656.0 172:243.0 173:79.0 174:74.0 175:57.0 176:45.0 177:142.0 178:69.0 179:66.0 180:66.0 181:140.0 182:54.0 183:61.0 184:34.0 185:1428.0 186:390.0 187:78.0 188:50.0 189:65.0 190:49.0 191:155.0 192:44.0 193:41.0 194:60.0 195:153.0 196:70.0 197:62.0 198:69.0 199:2074.0 200:413.0 201:89.0 202:39.0 203:30.0 205:69.0 206:47.0 207:17.0 208:35.0 209:103.0 210:68.0 211:52.0 212:34.0 213:551.0 214:154.0 215:38.0 216:17.0 217:294.0 218:93.0 219:114.0 220:43.0 221:52.0 222:31.0 223:48.0 224:57.0 225:43.0 226:48.0 227:314.0 228:120.0 229:60.0 230:25.0 231:52.0 232:19.0 233:38.0 234:41.0 235:51.0 236:21.0 237:53.0 238:48.0 239:35.0 240:27.0 241:480.0 242:170.0 243:80.0 244:49.0 245:35.0 246:31.0 247:39.0 248:28.0 249:30.0 250:41.0 251:60.0 252:31.0 253:42.0 254:30.0 255:745.0 256:205.0 257:64.0 258:37.0 259:48.0 260:42.0 261:41.0 262:36.0 263:25.0 264:38.0 265:36.0 266:38.0 267:35.0 268:25.0 269:333.0 270:113.0 271:57.0 272:27.0 273:52.0 274:40.0 275:34.0 276:29.0 277:40.0 278:26.0 279:26.0 280:29.0 281:43.0 282:20.0 283:170.0 284:69.0 285:53.0 286:46.0 287:35.0 288:37.0 289:27.0 290:44.0 291:24.0 292:40.0 293:30.0 294:32.0 295:31.0 296:26.0 297:198.0 298:118.0 299:67.0 300:49.0 301:34.0 302:28.0 303:30.0 304:38.0 305:36.0 306:39.0 307:44.0 308:33.0 309:46.0 310:44.0 311:622.0 312:208.0 313:73.0 314:48.0 315:55.0 316:57.0 317:34.0 318:38.0 319:33.0 320:37.0 321:31.0 322:35.0 323:30.0 324:29.0 325:289.0 326:115.0 327:45.0 328:36.0 329:21.0 330:61.0 331:50.0 332:44.0 333:39.0 334:39.0 335:49.0 336:40.0 337:31.0 338:37.0 339:92.0 340:66.0 341:33.0 342:20.0 343:40.0 344:34.0 345:46.0 346:34.0 347:42.0 348:41.0 349:45.0 350:23.0 351:35.0 352:26.0 353:161.0 354:123.0 355:72.0 356:36.0 357:28.0 358:31.0 359:43.0 360:41.0 361:92.0 362:85.0 363:43.0 364:31.0 365:35.0 366:87.0 367:835.0 368:687.0 369:225.0 370:59.0 371:41.0 372:41.0 373:31.0 374:41.0 375:38.0 376:47.0 377:50.0 378:62.0 379:153.0 380:121.0 381:176.0 382:163.0 383:60.0 384:27.0 385:36.0 386:23.0 387:38.0 388:31.0 389:42.0 390:36.0 391:41.0 392:41.0 393:18.0 394:31.0 395:40.0 396:20.0 397:26.0 398:18.0 399:20.0 400:28.0 401:29.0 402:20.0 403:26.0 404:27.0 405:36.0 406:25.0 407:27.0 408:26.0 409:95.0 410:1223.0 411:998.0 412:289.0 413:65.0 414:30.0 415:34.0 416:8.0 417:14.0 418:23.0 419:36.0 420:19.0 421:29.0 422:34.0 423:15.0 424:33.0 425:10.0 426:24.0 427:23.0 428:14.0 429:17.0 430:14.0 431:31.0 432:24.0 433:18.0 434:28.0 435:42.0 436:29.0 437:17.0 438:27.0 439:26.0 440:25.0 441:20.0 442:7.0 443:13.0 444:15.0 445:16.0 446:18.0 447:24.0 448:20.0 449:24.0 450:35.0 451:34.0 452:28.0 453:30.0 454:26.0 455:18.0 456:13.0 457:11.0 458:26.0 459:16.0 460:11.0 461:18.0 462:5.0 463:23.0 464:23.0 465:33.0 466:9.0 467:38.0 468:22.0 469:24.0 470:23.0 471:1.0 472:22.0 473:21.0 474:10.0 475:18.0 476:18.0 477:9.0 478:14.0 479:11.0 480:25.0 481:26.0 482:14.0 483:19.0 484:26.0 485:26.0 486:27.0 487:26.0 488:19.0 489:13.0 490:8.0 491:16.0 492:21.0 493:16.0 494:25.0 495:16.0 496:17.0 497:16.0 498:22.0 499:9.0 500:29.0
C28,14378,27.617,1061700,82:1635.0 83:9279.0 84:3127.0 85:4574.0 86:445.0 87:52826.0 88:4394.0 89:458.0 90:166.0 91:371.0 92:221.0 93:884.0 94:402.0 95:2688.0 96:1202.0 97:6393.0 98:2813.0 99:993.0 100:308.0 101:4737.0 102:644.0 103:185.0 104:196.0 105:244.0 106:135.0 107:756.0 108:249.0 109:1266.0 110:479.0 111:2453.0 112:669.0 113:509.0 114:166.0 115:1549.0 116:878.0 117:263.0 118:91.0 119:193.0 120:130.0 121:737.0 122:197.0 123:572.0 124:222.0 125:1128.0 126:216.0 127:229.0 128:162.0 129:3744.0 130:1282.0 131:244.0 132:128.0 133:315.0 134:152.0 135:657.0 136:176.0 137:284.0 138:133.0 139:563.0 140:152.0 141:150.0 142:99.0 143:9534.0 144:1218.0 145:232.0 146:145.0 147:332.0 148:156.0 149:478.0 150:116.0 151:174.0 152:148.0 153:339.0 154:133.0 155:97.0 156:87.0 157:1096.0 158:238.0 159:112.0 160:40.0 161:105.0 162:106.0 163:239.0 164:94.0 165:114.0 166:115.0 167:213.0 168:86.0 169:116.0 170:84.0 171:580.0 172:237.0 173:89.0 174:38.0 175:49.0 176:58.0 177:134.0 178:51.0 179:55.0 180:76.0 181:127.0 182:69.0 183:133.0 184:98.0 185:1174.0 186:430.0 187:156.0 188:74.0 189:31.0 190:24.0 191:124.0 192:42.0 193:42.0 194:79.0 195:130.0 196:105.0 197:138.0 198:134.0 199:1536.0 200:330.0 201:101.0 202:73.0 203:64.0 205:63.0 206:32.0 207:55.0 208:47.0 209:96.0 210:80.0 211:52.0 212:77.0 213:302.0 214:105.0 215:62.0 216:55.0 217:93.0 218:63.0 219:60.0 220:53.0 221:24.0 222:52.0 223:78.0 224:62.0 225:33.0 226:54.0 227:335.0 228:102.0 229:46.0 230:40.0 231:33.0 232:55.0 233:39.0 234:71.0 235:62.0 236:38.0 237:61.0 238:62.0 239:45.0 240:44.0 241:369.0 242:143.0 243:48.0 244:36.0 245:27.0 246:41.0 247:47.0 248:61.0 249:22.0 250:48.0 251:65.0 252:32.0 253:28.0 254:30.0 255:393.0 256:125.0 257:44.0 258:52.0 259:59.0 260:50.0 261:31.0 262:22.0 263:55.0 264:48.0 265:52.0 266:46.0 267:22.0 268:12.0 269:130.0 270:78.0 271:50.0 272:27.0 273:48.0 274:51.0 275:34.0 276:35.0 277:22.0 278:32.0 279:28.0 280:35.0 281:56.0 282:32.0 283:242.0 284:117.0 285:49.0 286:37.0 287:65.0 288:34.0 289:6.0 290:61.0 291:21.0 292:36.0 293:34.0 294:46.0 295:36.0 296:37.0 297:202.0 298:93.0 299:38.0 300:40.0 301:11.0 302:40.0 303:36.0 304:29.0 305:24.0 306:40.0 307:35.0 308:38.0 309:38.0 310:31.0 311:111.0 312:72.0 313:39.0 314:31.0 315:39.0 316:26.0 317:41.0 318:38.0 319:36.0 320:35.0 321:25.0 322:24.0 323:29.0 324:27.0 325:105.0 326:83.0 327:46.0 328:33.0 329:42.0 330:40.0 331:32.0 332:22.0 333:33.0 334:32.0 335:29.0 336:45.0 337:16.0 338:24.0 339:369.0 340:159.0 341:68.0 342:40.0 343:50.0 344:34.0 345:28.0 346:23.0 347:32.0 348:39.0 349:42.0 350:45.0 351:42.0 352:34.0 353:184.0 354:106.0 355:45.0 356:42.0 357:35.0 358:49.0 359:37.0 360:29.0 363:34.0 364:17.0 365:32.0 366:29.0 367:81.0 368:37.0 369:30.0 370:5.0 371:12.0 372:34.0 373:30.0 374:46.0 375:44.0 376:39.0 377:51.0 378:31.0 379:20.0 380:43.0 381:122.0 382:106.0 383:40.0 384:43.0 385:19.0 386:22.0 387:29.0 388:36.0 389:77.0 390:58.0 391:55.0 392:45.0 393:31.0 394:61.0 395:522.0 396:514.0 397:174.0 398:78.0 399:38.0 400:39.0 401:19.0 402:41.0 403:36.0 404:84.0 405:147.0 406:119.0 407:134.0 408:103.0 409:138.0 410:139.0 411:46.0 412:48.0 413:24.0 414:13.0 415:36.0 416:19.0 417:38.0 418:51.0 419:60.0 420:43.0 421:25.0 422:37.0 423:23.0 424:32.0 425:40.0 426:36.0 427:12.0 428:17.0 429:29.0 430:25.0 431:41.0 432:27.0 433:23.0 434:27.0 435:15.0 436:40.0 437:118.0 438:897.0 439:938.0 440:259.0 441:72.0 442:25.0 443:38.0 444:46.0 445:51.0 446:101.0 447:67.0 448:51.0 449:54.0 450:35.0 451:17.0 452:39.0 453:25.0 454:21.0 455:25.0 456:24.0 457:17.0 458:32.0 459:46.0 460:65.0 461:71.0 462:61.0 463:32.0 464:43.0 465:26.0 466:16.0 467:36.0 468:31.0 469:24.0 470:30.0 471:24.0 472:23.0 473:24.0 474:19.0 475:24.0 476:27.0 477:20.0 478:25.0 479:30.0 480:18.0 481:26.0 482:42.0 483:49.0 484:37.0 485:21.0 486:20.0 487:23.0 488:10.0 489:32.0 490:32.0 491:15.0 492:37.0 493:59.0 494:33.0 495:25.0 496:21.0 497:33.0 498:17.0 499:37.0 500:31.0
C30,14441,29.017,1113100,82:386.0 83:175.0 84:640.0 85:1316.0 86:22.0 87:14820.0 88:833.0 89:76.0 94:54.0 95:201.0 96:151.0 97:1721.0 98:742.0 99:328.0 100:80.0 101:1398.0 102:69.0 104:59.0 107:129.0 109:95.0 111:559.0 112:151.0 113:46.0 115:604.0 116:167.0 118:19.0 122:20.0 123:188.0 124:65.0 125:151.0 126:29.0 127:20.0 128:44.0 130:273.0 135:181.0 136:74.0 137:119.0 138:92.0 141:189.0 143:2506.0 147:213.0 149:133.0 150:127.0 151:72.0 152:125.0 153:291.0 155:81.0 156:80.0 157:131.0 158:13.0 166:36.0 167:21.0 172:36.0 174:47.0 175:9.0 177:52.0 179:200.0 183:64.0 185:345.0 186:223.0 188:13.0 190:109.0 192:95.0 198:44.0 199:277.0 200:21.0 202:26.0 204:204.0 206:72.0 207:7.0 209:117.0 210:154.0 211:21.0 212:100.0 213:202.0 214:11.0 217:108.0 218:10.0 221:10.0 222:28.0 223:12.0 225:122.0 227:6.0 228:101.0 229:70.0 230:46.0 231:144.0 233:36.0 234:75.0 236:86.0 237:21.0 238:17.0 239:57.0 241:43.0 242:98.0 243:100.0 245:2.0 249:74.0 251:57.0 253:122.0 254:35.0 258:58.0 259:52.0 260:42.0 262:8.0 264:61.0 265:15.0 267:92.0 270:172.0 272:8.0 274:74.0 275:3.0 276:36.0 278:15.0 281:180.0 283:35.0 284:1.0 285:15.0 287:8.0 289:133.0 292:53.0 294:50.0 298:5.0 299:40.0 300:59.0 303:103.0 305:97.0 306:13.0 307:74.0 308:10.0 311:38.0 312:113.0 313:40.0 314:3.0 315:22.0 316:9.0 317:59.0 319:39.0 320:37.0 321:49.0 322:45.0 324:44.0 325:85.0 326:16.0 327:15.0 328:147.0 331:35.0 332:25.0 335:56.0 336:3.0 339:67.0 340:32.0 341:96.0 345:13.0 346:94.0 349:24.0 350:49.0 353:18.0 354:46.0 357:44.0 359:3.0 360:73.0 361:13.0 362:69.0 363:41.0 364:2.0 365:40.0 366:29.0 367:144.0 368:65.0 370:52.0 373:7.0 375:34.0 376:43.0 378:49.0 381:38.0 382:63.0 386:101.0 389:8.0 392:49.0 396:25.0 397:51.0 398:17.0 401:104.0 402:52.0 403:14.0 404:26.0 405:13.0 407:10.0 408:46.0 409:63.0 411:30.0 413:2.0 416:51.0 417:81.0 419:25.0 423:276.0 424:136.0 425:172.0 426:50.0 429:30.0 430:31.0 432:29.0 433:32.0 436:11.0 437:72.0 438:44.0 439:22.0 440:67.0 441:124.0 442:27.0 443:68.0 444:17.0 445:2.0 446:27.0 447:104.0 448:37.0 449:8.0 450:24.0 451:48.0 452:63.0 456:88.0 460:15.0 461:15.0 463:63.0 464:27.0 465:72.0 466:326.0 467:236.0 468:42.0 469:30.0 470:70.0 475:57.0 476:62.0 477:28.0 478:89.0 479:54.0 481:38.0 483:118.0 488:81.0 489:19.0 492:21.0 495:28.0 496:31.0 497:62.0